…
*This provides a brief glimpse of the properties of the data frame that I used for the second task. It is table that depicts the changes in human development index (HDI) between 1990 and 2015 for all UN countries. The table consists of 28 variables and 188 observations*

``` r
viz1 <- gather(HDI, "year", "HDI", 3:28) %>% select(Country, year, HDI) %>% filter(!is.na(HDI)) %>% group_by(Country)
viz1
```

    ## # A tibble: 4,348 x 3
    ## # Groups:   Country [188]
    ##        Country  year   HDI
    ##          <chr> <chr> <dbl>
    ##  1 Afghanistan  1990 0.295
    ##  2     Albania  1990 0.635
    ##  3     Algeria  1990 0.577
    ##  4   Argentina  1990 0.705
    ##  5     Armenia  1990 0.634
    ##  6   Australia  1990 0.866
    ##  7     Austria  1990 0.794
    ##  8     Bahrain  1990 0.745
    ##  9  Bangladesh  1990 0.386
    ## 10    Barbados  1990 0.714
    ## # ... with 4,338 more rows
…
*Here I have outputed the HDI data using ggplot. Each line represents one country. The dashed line represents the threshold that the UN uses to dilineate developed countries from developing countries*

``` r
p1 <- left_join(gapminder, HDI, by = c("country" = "Country"))
```

    ## Warning: Column `country`/`Country` joining factor and character vector,
    ## coercing into character vector

``` r
p1
```

    ## # A tibble: 1,704 x 33
    ##        country continent  year lifeExp      pop gdpPercap
    ##          <chr>    <fctr> <int>   <dbl>    <int>     <dbl>
    ##  1 Afghanistan      Asia  1952  28.801  8425333  779.4453
    ##  2 Afghanistan      Asia  1957  30.332  9240934  820.8530
    ##  3 Afghanistan      Asia  1962  31.997 10267083  853.1007
    ##  4 Afghanistan      Asia  1967  34.020 11537966  836.1971
    ##  5 Afghanistan      Asia  1972  36.088 13079460  739.9811
    ##  6 Afghanistan      Asia  1977  38.438 14880372  786.1134
    ##  7 Afghanistan      Asia  1982  39.854 12881816  978.0114
    ##  8 Afghanistan      Asia  1987  40.822 13867957  852.3959
    ##  9 Afghanistan      Asia  1992  41.674 16317921  649.3414
    ## 10 Afghanistan      Asia  1997  41.763 22227415  635.3414
    ## # ... with 1,694 more rows, and 27 more variables: `HDI Rank
    ## #   (2015)` <dbl>, `1990` <dbl>, `1991` <dbl>, `1992` <dbl>, `1993` <dbl>,
    ## #   `1994` <dbl>, `1995` <dbl>, `1996` <dbl>, `1997` <dbl>, `1998` <dbl>,
    ## #   `1999` <dbl>, `2000` <dbl>, `2001` <dbl>, `2002` <dbl>, `2003` <dbl>,
    ## #   `2004` <dbl>, `2005` <dbl>, `2006` <dbl>, `2007` <dbl>, `2008` <dbl>,
    ## #   `2009` <dbl>, `2010` <dbl>, `2011` <dbl>, `2012` <dbl>, `2013` <dbl>,
    ## #   `2014` <dbl>, `2015` <dbl>

*Here I have joined the HDI data to the gapminder data by country using a left\_join*

``` r
dev1 <- p1 %>% filter(year == 2007) %>% select(country, continent, lifeExp, pop, gdpPercap, `2007`) 
dev1
```

    ## # A tibble: 142 x 6
    ##        country continent lifeExp       pop  gdpPercap `2007`
    ##          <chr>    <fctr>   <dbl>     <int>      <dbl>  <dbl>
    ##  1 Afghanistan      Asia  43.828  31889923   974.5803  0.433
    ##  2     Albania    Europe  76.423   3600523  5937.0295  0.713
    ##  3     Algeria    Africa  72.301  33333216  6223.3675  0.697
    ##  4      Angola    Africa  42.731  12420476  4797.2313  0.468
    ##  5   Argentina  Americas  75.320  40301927 12779.3796  0.792
    ##  6   Australia   Oceania  81.235  20434176 34435.3674  0.921
    ##  7     Austria    Europe  79.829   8199783 36126.4927  0.864
    ##  8     Bahrain      Asia  75.635    708573 29796.0483  0.815
    ##  9  Bangladesh      Asia  64.062 150448339  1391.2538  0.520
    ## 10     Belgium    Europe  79.441  10392226 33692.6051  0.874
    ## # ... with 132 more rows

*I would like to take a look at the number of countries within each continent that fall above and bellow the development threshold in 2007. So, here I have filtered out all survey years except for 2007 and selected relevant variables*

``` r
dev2 <- dev1 %>% mutate(dev_threshold=c("developing2007", "developed2007")[(`2007` >= 0.800) + 1]) %>% filter(!is.na(`2007`))
dev2
```

    ## # A tibble: 123 x 7
    ##        country continent lifeExp       pop  gdpPercap `2007`
    ##          <chr>    <fctr>   <dbl>     <int>      <dbl>  <dbl>
    ##  1 Afghanistan      Asia  43.828  31889923   974.5803  0.433
    ##  2     Albania    Europe  76.423   3600523  5937.0295  0.713
    ##  3     Algeria    Africa  72.301  33333216  6223.3675  0.697
    ##  4      Angola    Africa  42.731  12420476  4797.2313  0.468
    ##  5   Argentina  Americas  75.320  40301927 12779.3796  0.792
    ##  6   Australia   Oceania  81.235  20434176 34435.3674  0.921
    ##  7     Austria    Europe  79.829   8199783 36126.4927  0.864
    ##  8     Bahrain      Asia  75.635    708573 29796.0483  0.815
    ##  9  Bangladesh      Asia  64.062 150448339  1391.2538  0.520
    ## 10     Belgium    Europe  79.441  10392226 33692.6051  0.874
    ## # ... with 113 more rows, and 1 more variables: dev_threshold <chr>
…
