…
``` r
filter(gapminder, year %in% 1970:1972 & country == "Albania")
```

    ## # A tibble: 1 x 6
    ##   country continent  year lifeExp     pop gdpPercap
    ##    <fctr>    <fctr> <int>   <dbl>   <int>     <dbl>
    ## 1 Albania    Europe  1972   67.69 2263554  3313.422

``` r
filter(gapminder, pop > 500000000)
```

    ## # A tibble: 21 x 6
    ##    country continent  year  lifeExp        pop gdpPercap
    ##     <fctr>    <fctr> <int>    <dbl>      <int>     <dbl>
    ##  1   China      Asia  1952 44.00000  556263527  400.4486
    ##  2   China      Asia  1957 50.54896  637408000  575.9870
    ##  3   China      Asia  1962 44.50136  665770000  487.6740
    ##  4   China      Asia  1967 58.38112  754550000  612.7057
    ##  5   China      Asia  1972 63.11888  862030000  676.9001
    ##  6   China      Asia  1977 63.96736  943455000  741.2375
    ##  7   China      Asia  1982 65.52500 1000281000  962.4214
    ##  8   China      Asia  1987 67.27400 1084035000 1378.9040
    ##  9   China      Asia  1992 68.69000 1164970000 1655.7842
    ## 10   China      Asia  1997 70.42600 1230075000 2289.2341
    ## # ... with 11 more rows
…
