…
``` r
release_fac <- singer_locations %>% 
  transform(release = factor(release))
glimpse(release_fac$release)
```

    ##  Factor w/ 9049 levels "! Ich Kann","¡Esta!",..: 2355 7424 3531 6855 365 6514 2306 6739 4328 6272 ...

``` r
fct_count(release_fac$release)
```

    ## # A tibble: 9,049 x 2
    ##                               f     n
    ##                          <fctr> <int>
    ##  1                   ! Ich Kann     1
    ##  2                       ¡Esta!     1
    ##  3                      ¡GRRRR!     1
    ##  4                 ¡Nueva York!     1
    ##  5              ¿Como Te Llama?     1
    ##  6            ¿Hay Alguien Ahí?     1
    ##  7           ... And I Mean It!     1
    ##  8             ...All This Time     2
    ##  9 ...An Education In Rebellion     1
    ## 10         ...Anywhere But Here     1
    ## # ... with 9,039 more rows
…
