…
*This bar chart provides a depiction of the data found in the table above*

``` r
gapminder %>% mutate(benchmark=c("below", "over")[(lifeExp>59.4744) + 1]) %>% group_by(continent) %>% filter(benchmark == "below") %>% count(benchmark, year)
```

    ## # A tibble: 40 x 4
    ## # Groups:   continent [4]
    ##    continent benchmark  year     n
    ##       <fctr>     <chr> <int> <int>
    ##  1    Africa     below  1952    52
    ##  2    Africa     below  1957    52
    ##  3    Africa     below  1962    51
    ##  4    Africa     below  1967    50
    ##  5    Africa     below  1972    50
    ##  6    Africa     below  1977    49
    ##  7    Africa     below  1982    43
    ##  8    Africa     below  1987    39
    ##  9    Africa     below  1992    38
    ## 10    Africa     below  1997    39
    ## # ... with 30 more rows
…
