…
  artists2 <- singer_locations %>%
  filter(year == x) %>%
  group_by(artist_name) %>%
  summarize(hotness = mean(artist_hotttnesss)) %>%
  arrange(desc(hotness)) %>%
  head(y)
  
  artists3 <- semi_join(artists1, artists2, by = "artist_name")
  return(artists3)
}
HottestArtists(1995, 50)
```

    ## # A tibble: 54 x 6
    ##                                                   release     artist_name
    ##                                                     <chr>           <chr>
    ##  1                                  Destroy Erase Improve       Meshuggah
    ##  2               Grand Prix / Songs From Northern Britain Teenage Fanclub
    ##  3 Still The Orchestra Plays - Greatest Hits Volume 1 & 2        Savatage
    ##  4                                              Third Day       Third Day
    ##  5                                         Blonde Redhead  Blonde Redhead
    ##  6                                              Mr. Smith       LL Cool J
    ##  7                     Black Sunday / III Temples Of Boom    Cypress Hill
    ##  8                             Toby Keith 35 Biggest Hits      Toby Keith
    ##  9                                       It Matters To Me      Faith Hill
    ## 10                                          Said And Done         Boyzone
    ## # ... with 44 more rows, and 4 more variables: artist_hotttnesss <dbl>,
    ## #   latitude <dbl>, longitude <dbl>, city <chr>

``` r
HottestArtists(2005, 20)
```

    ## # A tibble: 23 x 6
    ##                        release
    ##                          <chr>
    ##  1               Devils & Dust
    ##  2          All That We Needed
    ##  3 Jagged Little Pill Acoustic
    ##  4    The Emancipation of Mimi
    ##  5       Don't Forget About Us
    ##  6                The Triptych
    ##  7 Dance Vault Remixes - Diary
    ##  8       When Everything Falls
    ##  9           Caught In The Act
    ## 10       Don't Forget About Us
    ## # ... with 13 more rows, and 5 more variables: artist_name <chr>,
    ## #   artist_hotttnesss <dbl>, latitude <dbl>, longitude <dbl>, city <chr>
…
``` r
candy <- read.csv("candydata.csv", stringsAsFactors = FALSE)
candy_id <- candy %>%
  select(age = starts_with("How"), everything()) 
sums <- candy_id %>%
  mutate(joysum = rowSums(candy_id=="JOY"), despairsum = rowSums(candy_id=="DESPAIR")) 
total <- sums %>%
  select(age, despairsum, joysum) %>%
  group_by(age) %>%
  summarize(sum(despairsum), sum(joysum)) %>%
  filter(age != 44.4444)
total
```

    ## # A tibble: 74 x 3
    ##      age `sum(despairsum)` `sum(joysum)`
    ##    <dbl>             <dbl>         <dbl>
    ##  1     5                36            59
    ##  2     6               142           181
    ##  3     7               107            74
    ##  4     8                85           200
    ##  5     9               376           416
    ##  6    10               192           262
    ##  7    11               307           390
    ##  8    12               585           571
    ##  9    13               910           910
    ## 10    14               631           514
    ## # ... with 64 more rows
…
    ## 
    ## Attaching package: 'maps'

    ## The following object is masked from 'package:purrr':
    ## 
    ##     map

    ## # A tibble: 22 x 6
    ##                                                        release
    ##                                                          <chr>
    ##  1                                                      Mutter
    ##  2                                                       Fyuti
    ##  3                                              End Is Forever
    ##  4                                                  Fill Me In
    ##  5                                                    Blowback
    ##  6                          High Noon - 20 All Time Favourites
    ##  7                                               Outrospective
    ##  8                                           Wu-Tang Iron Flag
    ##  9 Moldy Peaches 2000: Unreleased Cutz And Live Jamz 1994-2002
    ## 10                                                           V
    ## # ... with 12 more rows, and 5 more variables: artist_name <chr>,
    ## #   artist_hotttnesss <dbl>, latitude <dbl>, longitude <dbl>, city <chr>
…
``` r
TopMapArtist(1975, 100)
```

    ## # A tibble: 21 x 6
    ##                             release              artist_name
    ##                               <chr>                    <chr>
    ##  1                   Face The Music Electric Light Orchestra
    ##  2                    Tale Spinnin'           Weather Report
    ##  3                  Still Caught Up           Millie Jackson
    ##  4               Heavy Metal Be-Bop     The Brecker Brothers
    ##  5             Two Bugs And A Roach              Earl Hooker
    ##  6                      In The Slot           Tower Of Power
    ##  7                  Doctor's Orders            Carol Douglas
    ##  8            The Very Best Of Poco                     Poco
    ##  9 Bolan's Zip Gun (Deluxe Edition)                    T.Rex
    ## 10                      The Best Of                   Smokie
    ## # ... with 11 more rows, and 4 more variables: artist_hotttnesss <dbl>,
    ## #   latitude <dbl>, longitude <dbl>, city <chr>
…
    ## Map from URL : http://maps.googleapis.com/maps/api/staticmap?center=39.8283,-97&zoom=4&size=640x640&scale=2&maptype=terrain&sensor=false

    ## Warning: fullpage and expand syntaxes deprecated, use extent.

    ## Warning: `panel.margin` is deprecated. Please use `panel.spacing` property
    ## instead

    ## [[1]]
    ## # A tibble: 74 x 6
    ##                                                   release
    ##                                                     <chr>
    ##  1                                                 Boheme
    ##  2                             Come Join The Living World
    ##  3 Still The Orchestra Plays - Greatest Hits Volume 1 & 2
    ##  4                                              Mr. Smith
    ##  5                                Gospel Around The World
    ##  6                                John Michael Montgomery
    ##  7                              Tazmania Freestyle Vol. 4
    ##  8                                        Collective Soul
    ##  9                                          Disco Volante
    ## 10                                     The Future of What
    ## # ... with 64 more rows, and 5 more variables: artist_name <chr>,
    ## #   artist_hotttnesss <dbl>, latitude <dbl>, longitude <dbl>, city <chr>
    ## 
    ## [[2]]
…
*Here are two tests of the function*

``` r
USArtists(2000)
```

    ## Map from URL : http://maps.googleapis.com/maps/api/staticmap?center=39.8283,-97&zoom=4&size=640x640&scale=2&maptype=terrain&sensor=false

    ## Warning: fullpage and expand syntaxes deprecated, use extent.

    ## Warning: `panel.margin` is deprecated. Please use `panel.spacing` property
    ## instead

    ## [[1]]
    ## # A tibble: 80 x 6
    ##                                        release       artist_name
    ##                                          <chr>             <chr>
    ##  1                           For The Last Time         Bob Wills
    ##  2                                     Gung Ho       Patti Smith
    ##  3                         When All Else Fails           Bracket
    ##  4                             Lo-def Pressure      Bill Laswell
    ##  5 Myths_ Legends And Other Amazing Adventures      The Aquabats
    ##  6                                    Binaural         Pearl Jam
    ##  7                          Year Of The Dragon    Modern Talking
    ##  8               Counterpoints:  Live In Tokyo       McCoy Tyner
    ##  9                                    De Stijl The White Stripes
    ## 10                     The Ever Passing Moment              MxPx
    ## # ... with 70 more rows, and 4 more variables: artist_hotttnesss <dbl>,
    ## #   latitude <dbl>, longitude <dbl>, city <chr>
    ## 
    ## [[2]]
…
